[
  {
    "Rank": "A",
    "Color": "W",
    "Title": "",
    "Name": "SHADOW STAFF",
    "Description": "Extendable staff mastered by Lin Tsang Hsia.",
    "CHI": 0,
    "Effect": "n/a",
    "AP": 4,
    "EXP": "",
    "SP": 0
  },
  {
    "Rank": 2,
    "Color": "W",
    "Title": "",
    "Name": "SCYTHE",
    "Description": "Lethal farming weapon with curved blade.",
    "CHI": 0,
    "Effect": "n/a",
    "AP": 3,
    "EXP": "",
    "SP": 1
  },
  {
    "Rank": 3,
    "Color": "W",
    "Title": "",
    "Name": "NAGINATA",
    "Description": "Halberd with 4 foot shaft and 1 foot blade.",
    "CHI": 0,
    "Effect": "Allows 1 extra D6 in attack.",
    "AP": 2,
    "EXP": "",
    "SP": 0
  },
  {
    "Rank": 4,
    "Color": "W",
    "Title": "",
    "Name": "KAISER STAFF",
    "Description": "Hefty staff used by giant robo. Remove normal equipped weapon and replace with KAISER STAFF when in mech form.",
    "CHI": 0,
    "Effect": "Insinctively blocks against physical attacks. Roll 2 extra D6 in defence.",
    "AP": "n/a",
    "EXP": "",
    "SP": 0
  },
  {
    "Rank": 5,
    "Color": "W",
    "Title": "",
    "Name": "TOKUSHO KEIBO",
    "Description": "Automatic telescope baton.",
    "CHI": 0,
    "Effect": "Attacks any other players near target with a roll of 1 D6.",
    "AP": 4,
    "EXP": "",
    "SP": 0
  },
  {
    "Rank": 6,
    "Color": "W",
    "Title": "",
    "Name": "WOODEN NUNCHAKU",
    "Description": "Traditional martial arts weapon.",
    "CHI": 0,
    "Effect": "n/a",
    "AP": 5,
    "EXP": "",
    "SP": 0
  },
  {
    "Rank": 7,
    "Color": "W",
    "Title": "",
    "Name": "HEAVEN AND EARTH BLADE",
    "Description": "Traditional Chinese weapon. 54\" from tip to tip",
    "CHI": 0,
    "Effect": "n/a",
    "AP": 6,
    "EXP": "",
    "SP": 0
  },
  {
    "Rank": 8,
    "Color": "W",
    "Title": "",
    "Name": "WUSHU DOUBLE AXES",
    "Description": "2 traditional Chinese axes, as masteered by Li Kwei. Made from Wushu steel.",
    "CHI": 0,
    "Effect": "Attack twice to indicate dual weapons.",
    "AP": 4,
    "EXP": "",
    "SP": 0
  },
  {
    "Rank": 9,
    "Color": "W",
    "Title": "",
    "Name": "BAMBOO FIGHTING FAN",
    "Description": "Traditional Chinese weapon. Measures 27 1/2\" when open.",
    "CHI": 0,
    "Effect": "n/a",
    "AP": 3,
    "EXP": "",
    "SP": 1
  },
  {
    "Rank": 10,
    "Color": "W",
    "Title": "",
    "Name": "LUNAR STAFF",
    "Description": "Staff forged from moonrock.",
    "CHI": 4,
    "Effect": "Does an additional 6 points HOLY damage to all DAEMON STEEDS it attacks. Can only be used when player has transformed into Uriel.",
    "AP": 2,
    "EXP": "",
    "SP": 3
  },
  {
    "Rank": "J",
    "Color": "W",
    "Title": "",
    "Name": "NINJA BAZOOKA",
    "Description": "Fires shuriken at foe in a single burst.",
    "CHI": 0,
    "Effect": "Roll 1 D6 to determine how many shuriken fired. Each shuriken does 1 point damage. If equipped by a Sin Mage, NINJA BAZOOKA can be used in the same way as GHOST BEAN.",
    "AP": 2,
    "EXP": "",
    "SP": 0
  },
  {
    "Rank": "C",
    "Color": "W",
    "Title": "",
    "Name": "CRUSADER LANCE",
    "Description": "Cursed relic weapon.",
    "CHI": 1,
    "Effect": "Adds 1 D6 to attack and defence. Detracts 1 HP per turn.",
    "AP": 5,
    "EXP": "",
    "SP": 0
  },
  {
    "Rank": "K",
    "Color": "W",
    "Title": "",
    "Name": "ULTIMA STAFF",
    "Description": "Lethal staff that does an extra 10 points damage to the enemy.",
    "CHI": 0,
    "Effect": "Adds 1 D6 to attack and defence.",
    "AP": 1,
    "EXP": "",
    "SP": 1
  },
  {
    "Rank": "Q",
    "Color": "W",
    "Title": "",
    "Name": "QUEENE'S CROSSBOW",
    "Description": "Powerful weapon that can attack up to 5 eniems on the field.",
    "CHI": 0,
    "Effect": "Roll your attack die against each foe individually.",
    "AP": 4,
    "EXP": "",
    "SP": 0
  },
  {
    "Rank": "A",
    "Color": "P",
    "Title": "",
    "Name": "BODY ARMOUR",
    "Description": "Normal human practice armour.",
    "CHI": 0,
    "Effect": "Adds 1 D6 defence against physical attacks. Increases HP by 3 points.",
    "AP": "n/a",
    "EXP": "",
    "SP": 0
  },
  {
    "Rank": 2,
    "Color": "P",
    "Title": "",
    "Name": "KIMONO",
    "Description": "Traditional robelike Japanese wear.",
    "CHI": 0,
    "Effect": "Increase HP by 1 point, allows 1 extra D6 to defence against POISON attacks.",
    "AP": "n/a",
    "EXP": "",
    "SP": 0
  },
  {
    "Rank": 3,
    "Color": "P",
    "Title": "",
    "Name": "TANZEN",
    "Description": "Heavy outer-kimono for cold weather.",
    "CHI": 0,
    "Effect": "Increases HP by 2 points and allows the KIMONO card to also be equipped in place of one equipped CUP card.",
    "AP": "n/a",
    "EXP": "",
    "SP": 0
  },
  {
    "Rank": 4,
    "Color": "P",
    "Title": "",
    "Name": "HAORI",
    "Description": "Traditional Japanese jacket.",
    "CHI": 0,
    "Effect": "Allows KIMONO or YUKATA to also be equipped at the expense of a CUP card.",
    "AP": "n/a",
    "EXP": "",
    "SP": 0
  },
  {
    "Rank": 5,
    "Color": "P",
    "Title": "",
    "Name": "HAPPI",
    "Description": "Short sleeved coat with family crest.",
    "CHI": 0,
    "Effect": "Increases CHI by 3 points.",
    "AP": "n/a",
    "EXP": "",
    "SP": 0
  },
  {
    "Rank": 6,
    "Color": "P",
    "Title": "",
    "Name": "MAWASHI",
    "Description": "Traditional sumo loincloth.",
    "CHI": 0,
    "Effect": "Increases HP by 4 points.",
    "AP": "n/a",
    "EXP": "",
    "SP": 0
  },
  {
    "Rank": 7,
    "Color": "P",
    "Title": "",
    "Name": "GETA",
    "Description": "Wooden sandals.",
    "CHI": 0,
    "Effect": "Increase attack by 1 D6 and equip KIMONO or YUKATA at the expense of a CUP card.",
    "AP": "n/a",
    "EXP": "",
    "SP": 0
  },
  {
    "Rank": 8,
    "Color": "P",
    "Title": "",
    "Name": "HACHIMAKI",
    "Description": "Headband representing great exertion.",
    "CHI": 0,
    "Effect": "CHI rises by 3 points.",
    "AP": "n/a",
    "EXP": "",
    "SP": 2
  },
  {
    "Rank": 9,
    "Color": "P",
    "Title": "",
    "Name": "HAKAMA",
    "Description": "Traditional Japanese trowsers.",
    "CHI": 0,
    "Effect": "Equip KIMONO or HAORI at the expense of one CUP card.",
    "AP": "n/a",
    "EXP": "",
    "SP": 0
  },
  {
    "Rank": 10,
    "Color": "P",
    "Title": "",
    "Name": "INRO",
    "Description": "Containers with small compartments hung from KIMONO.",
    "CHI": 0,
    "Effect": "Equip KIMONO plus 1 additional card to your equipment at no expense.",
    "AP": "n/a",
    "EXP": "",
    "SP": 0
  },
  {
    "Rank": "K",
    "Color": "P",
    "Title": "",
    "Name": "NINJA COSTUME",
    "Description": "Ninja armour.",
    "CHI": 0,
    "Effect": "Immune to Sin Mage SHADOW BARGE attack and any shadow-based attacks.",
    "AP": "n/a",
    "EXP": "",
    "SP": 0
  },
  {
    "Rank": "C",
    "Color": "P",
    "Title": "",
    "Name": "LEGENDARY ARMOUR",
    "Description": "The armour of a legendary warrior. Comes in three colours: Red, Yellow, and Blue.",
    "CHI": 2,
    "Effect": "HP increases by 5 points.",
    "AP": "n/a",
    "EXP": "",
    "SP": 0
  },
  {
    "Rank": "Q",
    "Color": "P",
    "Title": "",
    "Name": "SAILOR FUKU",
    "Description": "The uniform of a legendary schoolgirl.",
    "CHI": 0,
    "Effect": "HP increases by 6 points.",
    "AP": "n/a",
    "EXP": "",
    "SP": 0
  },
  {
    "Rank": "K",
    "Color": "P",
    "Title": "",
    "Name": "SIEGE ENGINE",
    "Description": "Remains of a gutted Siege Engine unit.",
    "CHI": 0,
    "Effect": "Protects against any Ultima cards that reduce HP to 0. HP remains at 1 after attack is used. Cannot be used whilst URIEL or any other armour card is equipped. Cannot be used with any Guardian Deities.",
    "AP": "n/a",
    "EXP": "",
    "SP": 0
  },
  {
    "Rank": "A",
    "Color": "C",
    "Title": "",
    "Name": "MANEKINEKO",
    "Description": "Lucky cat charm.",
    "CHI": 0,
    "Effect": "Increases LUCK and allows 1 extra D6 in attack.",
    "AP": 2,
    "EXP": "",
    "SP": 0
  },
  {
    "Rank": 2,
    "Color": "C",
    "Title": "",
    "Name": "COPPER SCARAB",
    "Description": "Ancient scarab containing the soul of Uriel.",
    "CHI": 5,
    "Effect": "Must be equipped to ascend to Uriel.",
    "AP": "n/a",
    "EXP": "",
    "SP": 2
  },
  {
    "Rank": 3,
    "Color": "C",
    "Title": "",
    "Name": "HOMUNCULUS",
    "Description": "Crude representation of a human player.",
    "CHI": 0,
    "Effect": "When character reaches 0 HP, the homunculus dies in their place. Player's HP is restored to 50% of their total.",
    "AP": "n/a",
    "EXP": "",
    "SP": 0
  },
  {
    "Rank": 4,
    "Color": "C",
    "Title": "",
    "Name": "UTILITY BELT",
    "Description": "A unique belt with many hidden compartments.",
    "CHI": 0,
    "Effect": "Allows 1 extra D6 in defence against any physical or non-magical weapon attack.",
    "AP": 0,
    "EXP": "",
    "SP": 0
  },
  {
    "Rank": 5,
    "Color": "C",
    "Title": "",
    "Name": "MEZUZAH",
    "Description": "Small metal carving containing a Hebrew scroll. Usually applied to doorposts in Jewish tradition.",
    "CHI": 0,
    "Effect": "When affixed to giant mech or machine of any kind, the pilot's CHI increases by 10.",
    "AP": "n/a",
    "EXP": "",
    "SP": 0
  },
  {
    "Rank": 6,
    "Color": "C",
    "Title": "",
    "Name": "SHOFAR",
    "Description": "Horn used to signal Rosh Hashanah in Jewish tradition.",
    "CHI": 0,
    "Effect": "Restores 10 HP when used.",
    "AP": "n/a",
    "EXP": "",
    "SP": 1
  },
  {
    "Rank": 7,
    "Color": "C",
    "Title": "",
    "Name": "SILVER PRAYER BOOK",
    "Description": "Traditional Jewish Bar Mitzvah gift.",
    "CHI": 0,
    "Effect": "Protects against UNDEATH cards. Increases CHI by 5.",
    "AP": "n/a",
    "EXP": "",
    "SP": 0
  },
  {
    "Rank": 8,
    "Color": "C",
    "Title": "",
    "Name": "EMPEROR'S BANNER",
    "Description": "Standard of an ancient king.",
    "CHI": 0,
    "Effect": "Increase CHI by 10 points and add 1 D6 to defence against physical attacks.",
    "AP": "n/a",
    "EXP": "",
    "SP": 2
  },
  {
    "Rank": 9,
    "Color": "C",
    "Title": "",
    "Name": "MALACHITE LOZENGE",
    "Description": "Charm often given to children to ward off evil spirits.",
    "CHI": 0,
    "Effect": "Protects against Familiar Spirits.",
    "AP": "n/a",
    "EXP": "",
    "SP": 0
  },
  {
    "Rank": 10,
    "Color": "C",
    "Title": "",
    "Name": "SPRIG OF CORAL",
    "Description": "A protective amulet that defends against magical spells.",
    "CHI": 0,
    "Effect": "Player may roll 2 D6 against any Apprentice level magic card.",
    "AP": "n/a",
    "EXP": "",
    "SP": 1
  },
  {
    "Rank": "J",
    "Color": "C",
    "Title": "",
    "Name": "CHORTEN",
    "Description": "A miniature shrine containing a tablet moulded from the ashes of a Lama.",
    "CHI": 0,
    "Effect": "Player gainst 10 HP for every Familiar Spirit or spirit henchman on the field.",
    "AP": "n/a",
    "EXP": "",
    "SP": 1
  },
  {
    "Rank": "C",
    "Color": "C",
    "Title": "",
    "Name": "ORIGAMI MAGPIE",
    "Description": "A paper magpie designed by the Parlement of Cities to protect and heal cities.",
    "CHI": 5,
    "Effect": "Locks the FoP from any new players and increases any cure techniques by 1 D6.",
    "AP": 5,
    "EXP": "",
    "SP": 2
  },
  {
    "Rank": "Q",
    "Color": "C",
    "Title": "",
    "Name": "KOONG-SEE FEATHER",
    "Description": "Feather from the transformed Koong-See, a character from Chinese mythology who was transformed, with her lover, into a dove.",
    "CHI": 3,
    "Effect": "Cures 10 points of damage and adds 1 D6 to any extra cure cards.",
    "AP": "n/a",
    "EXP": "",
    "SP": 0
  },
  {
    "Rank": "K",
    "Color": "C",
    "Title": "",
    "Name": "JET MACHINE 01",
    "Description": "Powerful senshi machine. Combines with other senshi machines to form a powerful giant robo.",
    "CHI": 0,
    "Effect": "Adds 3 D6 to physical defence, 4 D^ to base attack. Can only be equipped when card EXP has reached a minimum of 10.",
    "AP": "n/a",
    "EXP": "",
    "SP": 4
  },
  {
    "Rank": "A",
    "Color": "S",
    "Title": "",
    "Name": "TRUSTY SWORD",
    "Description": "Old and familiar sword.",
    "CHI": 0,
    "Effect": "n/a",
    "AP": "n/a",
    "EXP": "",
    "SP": 0
  },
  {
    "Rank": 2,
    "Color": "S",
    "Title": "",
    "Name": "SWORD SLASHER!",
    "Description": "Hefty sword used by giant robo",
    "CHI": 0,
    "Effect": "Remove normal equipped weapon and replace with SWORD SLASHER when in mech form.",
    "AP": "n/a",
    "EXP": "",
    "SP": 0
  },
  {
    "Rank": 3,
    "Color": "S",
    "Title": "",
    "Name": "BOKKEN",
    "Description": "Hard wood sword.",
    "CHI": 0,
    "Effect": "n/a",
    "AP": "n/a",
    "EXP": "",
    "SP": 1
  },
  {
    "Rank": 4,
    "Color": "S",
    "Title": "",
    "Name": "NIHONTO",
    "Description": "Traditional Japanese sword.",
    "CHI": 0,
    "Effect": "n/a",
    "AP": "n/a",
    "EXP": "",
    "SP": 2
  },
  {
    "Rank": 5,
    "Color": "S",
    "Title": "",
    "Name": "SHINAI",
    "Description": "Bamboo sword.",
    "CHI": 0,
    "Effect": "CHI rises by 1 point per 10 EXP points attached to card.",
    "AP": "n/a",
    "EXP": "",
    "SP": 0
  },
  {
    "Rank": 6,
    "Color": "S",
    "Title": "",
    "Name": "GOLDEN DRAGON DAGGER",
    "Description": "Mythical Chinese dagger with CHI luminous blade.",
    "CHI": 2,
    "Effect": "Blocks CHI attacks/energy blasts that do less than 5 points damage.",
    "AP": "n/a",
    "EXP": "",
    "SP": 2
  },
  {
    "Rank": 7,
    "Color": "S",
    "Title": "",
    "Name": "BUTTERFLY KNIVES",
    "Description": "Traditional weapons used in Wing Chun kung-fu.",
    "CHI": 0,
    "Effect": "Attack twice to indicate dual weapons.",
    "AP": "n/a",
    "EXP": "",
    "SP": 1
  },
  {
    "Rank": 8,
    "Color": "S",
    "Title": "",
    "Name": "DUAL WIELDERS",
    "Description": "Set of TRUSTY SWORDS.",
    "CHI": 0,
    "Effect": "Attack twice to indicate dual weapons.",
    "AP": "n/a",
    "EXP": "",
    "SP": 0
  },
  {
    "Rank": 9,
    "Color": "S",
    "Title": "",
    "Name": "HOLY SWORD",
    "Description": "A sacred sword once wielded by a saint.",
    "CHI": 2,
    "Effect": "Does 2 points additional HOLY damage to Sin Mage characters per turn. If this sword is equipped by a Sin Mage character, the wielder will also suffer 2 points damage per turn.",
    "AP": "n/a",
    "EXP": "",
    "SP": 0
  },
  {
    "Rank": 10,
    "Color": "S",
    "Title": "",
    "Name": "URIEL'S SWORD",
    "Description": "Holy sword forged from moonlight.",
    "CHI": 3,
    "Effect": "Does 3 points additional damage to all mage class characters per turn. Can only be used when player has transformed into Uriel.",
    "AP": "n/a",
    "EXP": "",
    "SP": 4
  },
  {
    "Rank": "J",
    "Color": "S",
    "Title": "",
    "Name": "CAT SWORD",
    "Description": "Sword ihabited by the spirit of an old cat god.",
    "CHI": 4,
    "Effect": "Increases character's agility, allowing them to perform two movements per turn. The swords is known to meow loudly when hungry.",
    "AP": "n/a",
    "EXP": "",
    "SP": 2
  },
  {
    "Rank": "C",
    "Color": "S",
    "Title": "",
    "Name": "OBSIDIAN SABRE",
    "Description": "Dark sword carved by Mononoke smiths for a former king of Eoz.",
    "CHI": 5,
    "Effect": "Slowly corrupts, draining 1 point of SP and 1 point of CHI per turn and translating them into extra HP points.",
    "AP": "n/a",
    "EXP": "",
    "SP": 5
  },
  {
    "Rank": "Q",
    "Color": "S",
    "Title": "",
    "Name": "HEART SABRE",
    "Description": "Traditional heroine's sword with a heart crafted hilt.",
    "CHI": 5,
    "Effect": "Restores 10 HP to the player and removes 1 D6 defence from the opponent.",
    "AP": 5,
    "EXP": "",
    "SP": 1
  },
  {
    "Rank": "K",
    "Color": "S",
    "Title": "",
    "Name": "ULTIMA SWORD",
    "Description": "Ultimate weapon of its class, charged with fierce energy of humanity's Ultima Spirit.",
    "CHI": 5,
    "Effect": "Adds 4 D6 defence against Ultima attacks.",
    "AP": "n/a",
    "EXP": "",
    "SP": 4
  },
  {
    "Rank": 0,
    "Color": "A",
    "Title": "The Fool",
    "Name": "GUTS UP! FIGHTING SPIRIT!",
    "Description": "The human spirit to push on!",
    "CHI": 4,
    "Effect": "Replenishes HP, 1 point per turn.",
    "AP": "1 - 3 depending on level.",
    "EXP": "",
    "SP": 1
  },
  {
    "Rank": 1,
    "Color": "A",
    "Title": "The Magician",
    "Name": "FIST OF FURY",
    "Description": "Ultima Card (5/6). Deadly CHI charged punch.",
    "CHI": 3,
    "Effect": "n/a",
    "AP": 1,
    "EXP": "",
    "SP": -3
  },
  {
    "Rank": 2,
    "Color": "A",
    "Title": "The High Priestess",
    "Name": "GUARDIAN DEITY URIEL",
    "Description": "Used with cards #6 and #14 and magical equipment card.",
    "CHI": 10,
    "Effect": "Double HP and CHI",
    "AP": "n/a - fusion lasts until broken.",
    "EXP": "",
    "SP": 4
  },
  {
    "Rank": 3,
    "Color": "A",
    "Title": "The Empress",
    "Name": "RESTORATION OF SPIRIT",
    "Description": "Ultima Card (6/6). A healing spirit.",
    "CHI": 2,
    "Effect": "Magical wave that restores character and ally's HP and CHI by 3 points.",
    "AP": 1,
    "EXP": "",
    "SP": -2
  },
  {
    "Rank": 4,
    "Color": "A",
    "Title": "The Emperor",
    "Name": "TENNOO-KEN",
    "Description": "The ultimate strike of a deadly technique.",
    "CHI": 4,
    "Effect": "Powerful punch that causes victim to lose 1 SP in addition to the usual damage.",
    "AP": 1,
    "EXP": "",
    "SP": 1
  },
  {
    "Rank": 5,
    "Color": "A",
    "Title": "The Hierophant",
    "Name": "FLURRY OF FISTS",
    "Description": "Two-fisted flurry of punches to rain down upon your enemy.",
    "CHI": 0,
    "Effect": "n/a",
    "AP": 2,
    "EXP": "",
    "SP": 2
  },
  {
    "Rank": 6,
    "Color": "A",
    "Title": "The Lovers",
    "Name": "SICHERUNG MAGIE",
    "Description": "Allows fusion with ally.",
    "CHI": "12 per ally. Disembody: break fusion, CHI cost: 12 per ally",
    "Effect": "n/a",
    "AP": "n/a - fusion last until broken.",
    "EXP": "",
    "SP": 5
  },
  {
    "Rank": 7,
    "Color": "A",
    "Title": "The Chariot",
    "Name": "SENSHI MACHINE, HASSHIN!",
    "Description": "Summons character vehicle to FoP.",
    "CHI": 0,
    "Effect": "",
    "AP": "1, n/a if used with Mononoke.",
    "EXP": "",
    "SP": 0
  },
  {
    "Rank": 8,
    "Color": "A",
    "Title": "Strength",
    "Name": "ASCENSION",
    "Description": "Character forcibly ascends to the next level of their power by focusing CHI and SP points.",
    "CHI": 0,
    "Effect": "For the remainder of the match, the character is one level above usual.",
    "AP": "n/a",
    "EXP": "",
    "SP": -10
  },
  {
    "Rank": 9,
    "Color": "A",
    "Title": "The Hermit",
    "Name": "FOCUS CHI",
    "Description": "Gathers energy about the character.",
    "CHI": 0,
    "Effect": "Replenishes CHI by 1 each turn.",
    "AP": "1 - 3 depending on level.",
    "EXP": "",
    "SP": "2 per turn"
  },
  {
    "Rank": 10,
    "Color": "A",
    "Title": "The Wheel",
    "Name": "BUDDHA'S PALM",
    "Description": "Ancient Shaolin attack wherby the character strikes an enemy with a flat palm and two slightly raised fingers. Can cut through wood like paper.",
    "CHI": 1,
    "Effect": "n/a",
    "AP": 1,
    "EXP": "",
    "SP": 1
  },
  {
    "Rank": 11,
    "Color": "A",
    "Title": "Justice",
    "Name": "WRATH OF 10,000 BUDDHAS",
    "Description": "Ultima Card (3/10). Streaming blast of fire explode from the character's palms.",
    "CHI": 10,
    "Effect": "Reduces opponent's HP to 1.",
    "AP": 1,
    "EXP": "",
    "SP": -10
  },
  {
    "Rank": 12,
    "Color": "A",
    "Title": "The Hanged Man",
    "Name": "CURE",
    "Description": "A healing spell.",
    "CHI": 2,
    "Effect": "Restores 4 HP points. Cures poison.",
    "AP": 1,
    "EXP": "",
    "SP": 1
  },
  {
    "Rank": 13,
    "Color": "A",
    "Title": "Death",
    "Name": "MARTYR",
    "Description": "Give up half your HP to restore a fallen ally.",
    "CHI": 4,
    "Effect": "n/a",
    "AP": "n/a",
    "EXP": "",
    "SP": -3
  },
  {
    "Rank": 14,
    "Color": "A",
    "Title": "Temperance",
    "Name": "SUMMON SPIRIT",
    "Description": "Summon guardian deity.",
    "CHI": 15,
    "Effect": "This card can only be fielded once a magical item card has been equipped and card #6 has been played alongside it. Character may now draw the deity from their deck and amend their stats.",
    "AP": "n/a",
    "EXP": "",
    "SP": 2
  },
  {
    "Rank": 15,
    "Color": "A",
    "Title": "Devil",
    "Name": "BESERK!!",
    "Description": "Fly into an uncontrollable rage!",
    "CHI": 6,
    "Effect": "Equipment cards may not be used. HP increases by 1 point till SP is depleted.",
    "AP": "n/a",
    "EXP": "",
    "SP": "-1 per turn"
  },
  {
    "Rank": 16,
    "Color": "A",
    "Title": "Tower",
    "Name": "LEGENDARY PILOT!",
    "Description": "After a Mononoke mech combination has been played, this card will allow human pilots to use giant robots as if they were their own body.",
    "CHI": 0,
    "Effect": "n/a",
    "AP": "n/a",
    "EXP": "",
    "SP": 0
  },
  {
    "Rank": 17,
    "Color": "A",
    "Title": "Star",
    "Name": "GALAXY TELEPORTATION! CROSS SPACE!",
    "Description": "Switch FoP for combat area of your choice.",
    "CHI": 10,
    "Effect": "n/a",
    "AP": "n/a - once card is used the area can only be changed again by another character",
    "EXP": "",
    "SP": -1
  },
  {
    "Rank": 18,
    "Color": "A",
    "Title": "Moon",
    "Name": "URIEL'S STARDUST FLASH",
    "Description": "Ultima Card (4/6). Flash of lunar energy!",
    "CHI": 5,
    "Effect": "Deducts double points from victim. Can only be used when player has transformed to Uriel.",
    "AP": 1,
    "EXP": "",
    "SP": -5
  },
  {
    "Rank": 19,
    "Color": "A",
    "Title": "Sun",
    "Name": "SHADOWLESS KICK",
    "Description": "Brutal kick so swift it casts no shadow.",
    "CHI": 0,
    "Effect": "n/a",
    "AP": 1,
    "EXP": "",
    "SP": 0
  },
  {
    "Rank": 20,
    "Color": "A",
    "Title": "Judgement",
    "Name": "PASS SENTENCE",
    "Description": "Ultima Card (1/6). A devastating condemnation of those before you.",
    "CHI": 10,
    "Effect": "Reduces opponent's HP to 1.",
    "AP": "",
    "EXP": "",
    "SP": -10
  },
  {
    "Rank": 21,
    "Color": "A",
    "Title": "World",
    "Name": "EARTH CHI",
    "Description": "Ultima Card (2/6). Devestating energy blast that draws CHI from the planet around you.",
    "CHI": 10,
    "Effect": "Use only after #9 restores CHI to max or if character has full CHI.",
    "AP": 1,
    "EXP": "",
    "SP": -10
  }
]